{
  "count": 1126,
  "next": "https://pokeapi.co/api/v2/pokemon/?offset=15&limit=15",
  "previous": null,
  "results": [
    {
      "name": "bulbasaur",
      "url": "https://pokeapi.co/api/v2/pokemon/1/"
    },
    {
      "name": "ivysaur",
      "url": "https://pokeapi.co/api/v2/pokemon/2/"
    }
  ]
}